HISP IE in Practice: Evaluated Code – Matching and Weighting
…
8 Regression-Discontinuity Branch

# A tibble: 21 × 12
   model                   sample term  estimate std.error statistic   p.value conf.low conf.high    df n_obs n_clusters
   <chr>                   <chr>  <chr>    <dbl>     <dbl>     <dbl>     <dbl>    <dbl>     <dbl> <int> <int>      <int>
 1 Method 5: baseline hea… Treat… (Int…   0.127    0.357       0.357 7.21e-  1  -0.571     0.826   4957  4959         NA
 2 Method 5: baseline hea… Treat… pove…   0.302    0.00626    48.2   0           0.289     0.314   4957  4959         NA
 3 Method 5: RDD without … Treat… (Int…  20.6      0.338      60.9   0          19.9      21.2     4956  4960         NA
 4 Method 5: RDD without … Treat… pove…   0.176    0.0303      5.80  7.12e-  9   0.116     0.235   4956  4960         NA
 5 Method 5: RDD without … Treat… pove…   0.220    0.0316      6.98  3.37e- 12   0.158     0.282   4956  4960         NA
 6 Method 5: RDD without … Treat… elig… -11.2      0.466     -24.0   1.42e-120 -12.1     -10.3     4956  4960         NA
 7 Method 5: RDD with con… Treat… (Int…  29.2      0.920      31.8   1.31e-201  27.4      31.0     4945  4960         NA
 8 Method 5: RDD with con… Treat… elig…  -9.03     0.431     -21.0   1.27e- 93  -9.87     -8.18    4945  4960         NA
 9 Method 5: RDD with con… Treat… pove…  -0.0270   0.0286     -0.945 3.45e-  1  -0.0831    0.0290  4945  4960         NA
10 Method 5: RDD with con… Treat… pove…   0.171    0.0299      5.71  1.19e-  8   0.112     0.230   4945  4960         NA
# ℹ 11 more rows
…
